{
  "count": 207,
  "next": "https://spacelaunchnow.me/api/3.3.0/launch/upcoming/?limit=10&offset=20",
  "previous": "https://spacelaunchnow.me/api/3.3.0/launch/upcoming/?limit=10",
  "results": [
    {
      "id": "4a47e6e2-5545-4bac-ad84-21c8e73940b2",
      "url": "https://spacelaunchnow.me/api/3.3.0/launch/4a47e6e2-5545-4bac-ad84-21c8e73940b2/",
      "launch_library_id": 1603,
      "slug": "https://spacelaunchnow.me/launch/launcherone-test-flight",
      "name": "LauncherOne | Test Flight",
      "img_url": null,
      "status": {
        "id": 2,
        "name": "TBD"
      },
      "net": "2020-03-31T11:00:00+11:00",
      "window_end": "2020-03-31T11:00:00+11:00",
      "window_start": "2020-03-31T11:00:00+11:00",
      "inhold": false,
      "tbdtime": true,
      "tbddate": true,
      "probability": -1,
      "holdreason": null,
      "failreason": null,
      "hashtag": null,
      "rocket": {
        "id": 8,
        "configuration": {
          "id": 141,
          "launch_library_id": 173,
          "url": "https://spacelaunchnow.me/api/3.3.0/config/launcher/141/",
          "name": "LauncherOne",
          "launch_service_provider": "Virgin Orbit"
        },
        "launcher_stage": [],
        "spacecraft_stage": null
      },
      "mission": {
        "id": 679,
        "launch_library_id": 851,
        "name": "Test Flight",
        "description": "Payload-free test flight of the LauncherOne vehicle.",
        "type": "Test Flight",
        "orbit": "Low Earth Orbit",
        "orbit_abbrev": "LEO"
      },
      "pad": {
        "id": 53,
        "agency_id": null,
        "name": "Mojave Air and Space Port",
        "info_url": null,
        "wiki_url": "https://en.wikipedia.org/wiki/Mojave_Air_and_Space_Port",
        "map_url": "https://www.google.com/maps/place/35째03'34.0\"N+118째09'06.0\"W/",
        "latitude": "35.059444",
        "longitude": "-118.151667",
        "location": {
          "id": 20,
          "name": "Air launch to orbit",
          "country_code": "UNK"
        }
      },
      "image_url": null,
      "infographic_url": null
    },
    {
      "id": "6489581c-6f2c-452a-88c8-ecfe2ff0911b",
      "url": "https://spacelaunchnow.me/api/3.3.0/launch/6489581c-6f2c-452a-88c8-ecfe2ff0911b/",
      "launch_library_id": 1460,
      "slug": "https://spacelaunchnow.me/launch/launcherone-vcls-elana-xx",
      "name": "LauncherOne | VCLS ELaNa XX",
      "img_url": null,
      "status": {
        "id": 2,
        "name": "TBD"
      },
      "net": "2020-03-31T11:00:00+11:00",
      "window_end": "2020-03-31T11:00:00+11:00",
      "window_start": "2020-03-31T11:00:00+11:00",
      "inhold": false,
      "tbdtime": true,
      "tbddate": true,
      "probability": -1,
      "holdreason": null,
      "failreason": null,
      "hashtag": null,
      "rocket": {
        "id": 74,
        "configuration": {
          "id": 141,
          "launch_library_id": 173,
          "url": "https://spacelaunchnow.me/api/3.3.0/config/launcher/141/",
          "name": "LauncherOne",
          "launch_service_provider": "Virgin Orbit"
        },
        "launcher_stage": [],
        "spacecraft_stage": null
      },
      "mission": {
        "id": 496,
        "launch_library_id": 643,
        "name": "VCLS ELaNa XX",
        "description": "NASA's signed a Venture Class Launch Services contract with Virgin Orbit to launch 13 cubesats into polar orbit.",
        "type": "Dedicated Rideshare",
        "orbit": "Polar Orbit",
        "orbit_abbrev": "PO"
      },
      "pad": {
        "id": 53,
        "agency_id": null,
        "name": "Mojave Air and Space Port",
        "info_url": null,
        "wiki_url": "https://en.wikipedia.org/wiki/Mojave_Air_and_Space_Port",
        "map_url": "https://www.google.com/maps/place/35째03'34.0\"N+118째09'06.0\"W/",
        "latitude": "35.059444",
        "longitude": "-118.151667",
        "location": {
          "id": 20,
          "name": "Air launch to orbit",
          "country_code": "UNK"
        }
      },
      "image_url": null,
      "infographic_url": null
    },
    {
      "id": "6619844e-4777-4f7f-81d6-9ef0c3308d1d",
      "url": "https://spacelaunchnow.me/api/3.3.0/launch/6619844e-4777-4f7f-81d6-9ef0c3308d1d/",
      "launch_library_id": 1937,
      "slug": "https://spacelaunchnow.me/launch/kuaizhou-11-maiden-flight",
      "name": "Kuaizhou-11 | Maiden Flight",
      "img_url": null,
      "status": {
        "id": 2,
        "name": "TBD"
      },
      "net": "2020-03-31T11:00:00+11:00",
      "window_end": "2020-03-31T11:00:00+11:00",
      "window_start": "2020-03-31T11:00:00+11:00",
      "inhold": false,
      "tbdtime": true,
      "tbddate": true,
      "probability": -1,
      "holdreason": null,
      "failreason": null,
      "hashtag": null,
      "rocket": {
        "id": 2478,
        "configuration": {
          "id": 194,
          "launch_library_id": 223,
          "url": "https://spacelaunchnow.me/api/3.3.0/config/launcher/194/",
          "name": "Kuaizhou-11",
          "launch_service_provider": "ExPace"
        },
        "launcher_stage": [],
        "spacecraft_stage": null
      },
      "mission": {
        "id": 1003,
        "launch_library_id": 1212,
        "name": "Maiden Flight",
        "description": "First flight of the new solid launcher developed by ExPace, subsidiary of CASIC. It will carry 2 communication satellites on this launch.",
        "type": "Test Flight",
        "orbit": "Low Earth Orbit",
        "orbit_abbrev": "LEO"
      },
      "pad": {
        "id": 71,
        "agency_id": null,
        "name": "Unknown Pad",
        "info_url": null,
        "wiki_url": "",
        "map_url": "",
        "latitude": "40.958",
        "longitude": "100.291",
        "location": {
          "id": 17,
          "name": "Jiuquan, People's Republic of China",
          "country_code": "CHN"
        }
      },
      "image_url": null,
      "infographic_url": null
    },
    {
      "id": "120c53d4-d3a1-42fe-b2a5-a63e3b11d72b",
      "url": "https://spacelaunchnow.me/api/3.3.0/launch/120c53d4-d3a1-42fe-b2a5-a63e3b11d72b/",
      "launch_library_id": 1640,
      "slug": "https://spacelaunchnow.me/launch/electron-stp-27rm",
      "name": "Electron | STP-27RM",
      "img_url": null,
      "status": {
        "id": 2,
        "name": "TBD"
      },
      "net": "2020-04-01T11:00:00+11:00",
      "window_end": "2020-04-01T11:00:00+11:00",
      "window_start": "2020-04-01T11:00:00+11:00",
      "inhold": false,
      "tbdtime": true,
      "tbddate": true,
      "probability": -1,
      "holdreason": null,
      "failreason": null,
      "hashtag": null,
      "rocket": {
        "id": 2135,
        "configuration": {
          "id": 26,
          "launch_library_id": 148,
          "url": "https://spacelaunchnow.me/api/3.3.0/config/launcher/26/",
          "name": "Electron",
          "launch_service_provider": "Rocket Lab Ltd"
        },
        "launcher_stage": [],
        "spacecraft_stage": null
      },
      "mission": null,
      "pad": {
        "id": 79,
        "agency_id": 147,
        "name": "Rocket Lab Launch Complex 2",
        "info_url": null,
        "wiki_url": null,
        "map_url": null,
        "latitude": "37.834",
        "longitude": "-75.488",
        "location": {
          "id": 21,
          "name": "Wallops Island, Virginia, USA",
          "country_code": "USA"
        }
      },
      "image_url": null,
      "infographic_url": null
    },
    {
      "id": "13439df6-e99b-42b3-ab82-c0a8a2afe4d1",
      "url": "https://spacelaunchnow.me/api/3.3.0/launch/13439df6-e99b-42b3-ab82-c0a8a2afe4d1/",
      "launch_library_id": 1981,
      "slug": "https://spacelaunchnow.me/launch/h-iii-30-alos-4-maiden-flight",
      "name": "H-III 30 | ALOS-4 (Maiden flight)",
      "img_url": null,
      "status": {
        "id": 2,
        "name": "TBD"
      },
      "net": "2020-04-01T11:00:00+11:00",
      "window_end": "2020-04-01T11:00:00+11:00",
      "window_start": "2020-04-01T11:00:00+11:00",
      "inhold": false,
      "tbdtime": true,
      "tbddate": true,
      "probability": -1,
      "holdreason": null,
      "failreason": null,
      "hashtag": null,
      "rocket": {
        "id": 2538,
        "configuration": {
          "id": 203,
          "launch_library_id": 231,
          "url": "https://spacelaunchnow.me/api/3.3.0/config/launcher/203/",
          "name": "H-III 30",
          "launch_service_provider": "Mitsubishi Heavy Industries"
        },
        "launcher_stage": [],
        "spacecraft_stage": null
      },
      "mission": null,
      "pad": {
        "id": 69,
        "agency_id": null,
        "name": "Unknown Pad",
        "info_url": null,
        "wiki_url": "",
        "map_url": "",
        "latitude": "30.401",
        "longitude": "130.977",
        "location": {
          "id": 26,
          "name": "Tanegashima, Japan",
          "country_code": "JPN"
        }
      },
      "image_url": null,
      "infographic_url": null
    },
    {
      "id": "20e3fd08-b603-4b05-9c61-a4d4c7cf9e82",
      "url": "https://spacelaunchnow.me/api/3.3.0/launch/20e3fd08-b603-4b05-9c61-a4d4c7cf9e82/",
      "launch_library_id": null,
      "slug": "https://spacelaunchnow.me/launch/starship-sn3-first-flight",
      "name": "Starship SN3 | First Flight",
      "img_url": null,
      "status": {
        "id": 2,
        "name": "TBD"
      },
      "net": "2020-04-01T11:00:00+11:00",
      "window_end": "2020-04-01T11:00:00+11:00",
      "window_start": "2020-04-01T11:00:00+11:00",
      "inhold": false,
      "tbdtime": false,
      "tbddate": false,
      "probability": -1,
      "holdreason": "",
      "failreason": "",
      "hashtag": null,
      "rocket": {
        "id": 2555,
        "configuration": {
          "id": 207,
          "launch_library_id": null,
          "url": "https://spacelaunchnow.me/api/3.3.0/config/launcher/207/",
          "name": "Starship V1.0",
          "launch_service_provider": "SpaceX"
        },
        "launcher_stage": [
          {
            "type": "Core",
            "reused": null,
            "launcher_flight_number": 1,
            "launcher": {
              "id": 70,
              "url": "https://spacelaunchnow.me/api/3.3.0/launcher/70/",
              "details": "Third Starship V1.0 vehicle.",
              "flight_proven": false,
              "serial_number": "SN3",
              "status": "active",
              "previous_flights": 0,
              "image_url": null
            },
            "landing": null
          }
        ],
        "spacecraft_stage": null
      },
      "mission": {
        "id": 1040,
        "launch_library_id": null,
        "name": "Starship SN3 First Flight",
        "description": "The Starship SN3 first flight will likely be a 20km high suborbital launch from SpaceX's South Texas Launch Site in Boca Chica Village.",
        "type": "Test Flight",
        "orbit": "Sub-Orbital",
        "orbit_abbrev": "Sub Orbital"
      },
      "pad": {
        "id": 111,
        "agency_id": null,
        "name": "SpaceX South Texas Launch Site",
        "info_url": null,
        "wiki_url": "https://en.wikipedia.org/wiki/SpaceX_South_Texas_Launch_Site",
        "map_url": null,
        "latitude": "25.997116",
        "longitude": "-97.15503099856647",
        "location": {
          "id": 143,
          "name": "SpaceX Space Launch Facility, TX, USA",
          "country_code": "USA"
        }
      },
      "image_url": null,
      "infographic_url": null
    },
    {
      "id": "397c50c5-8a2b-4ca5-807d-8911c14b7126",
      "url": "https://spacelaunchnow.me/api/3.3.0/launch/397c50c5-8a2b-4ca5-807d-8911c14b7126/",
      "launch_library_id": 1131,
      "slug": "https://spacelaunchnow.me/launch/gslv-mk-ii-gisat-1",
      "name": "GSLV Mk II | GISAT-1",
      "img_url": null,
      "status": {
        "id": 2,
        "name": "TBD"
      },
      "net": "2020-04-01T11:00:00+11:00",
      "window_end": "2020-04-01T11:00:00+11:00",
      "window_start": "2020-04-01T11:00:00+11:00",
      "inhold": false,
      "tbdtime": true,
      "tbddate": true,
      "probability": -1,
      "holdreason": null,
      "failreason": null,
      "hashtag": null,
      "rocket": {
        "id": 56,
        "configuration": {
          "id": 168,
          "launch_library_id": 60,
          "url": "https://spacelaunchnow.me/api/3.3.0/config/launcher/168/",
          "name": "GSLV Mk II",
          "launch_service_provider": "Indian Space Research Organization"
        },
        "launcher_stage": [],
        "spacecraft_stage": null
      },
      "mission": {
        "id": 750,
        "launch_library_id": 458,
        "name": "GISAT-1",
        "description": "GISAT-1 is an Indian earth observation satellite to be launched in geostationary orbit. It is tasked with continuous observation of Indian sub-continent and quick monitoring of natural hazards and disaster. GISAT carries an imaging payload consisting of of multi-spectral, multi-resolution from 50 m to 1.5 km. It will provide pictures of the area of interest on near real time basis including border areas.",
        "type": "Earth Science",
        "orbit": "Geostationary Transfer Orbit",
        "orbit_abbrev": "GTO"
      },
      "pad": {
        "id": 82,
        "agency_id": 31,
        "name": "Satish Dhawan Space Centre Second Launch Pad",
        "info_url": null,
        "wiki_url": "https://en.wikipedia.org/wiki/Satish_Dhawan_Space_Centre_Second_Launch_Pad",
        "map_url": "https://www.google.com/maps?q=13.7199,80.2304",
        "latitude": "13.7199",
        "longitude": "80.2304",
        "location": {
          "id": 14,
          "name": "Sriharikota, Republic of India",
          "country_code": "IND"
        }
      },
      "image_url": null,
      "infographic_url": "https://spacelaunchnow-prod-east.nyc3.cdn.digitaloceanspaces.com/media/launch_images/gslv2520mk252_infographic_20200229190506.png"
    },
    {
      "id": "5336dd45-9773-463b-acda-2a633b725d94",
      "url": "https://spacelaunchnow.me/api/3.3.0/launch/5336dd45-9773-463b-acda-2a633b725d94/",
      "launch_library_id": 1611,
      "slug": "https://spacelaunchnow.me/launch/sslv-demo-1",
      "name": "SSLV  | Demo 1",
      "img_url": null,
      "status": {
        "id": 2,
        "name": "TBD"
      },
      "net": "2020-04-01T11:00:00+11:00",
      "window_end": "2020-04-01T11:00:00+11:00",
      "window_start": "2020-04-01T11:00:00+11:00",
      "inhold": false,
      "tbdtime": true,
      "tbddate": true,
      "probability": -1,
      "holdreason": null,
      "failreason": null,
      "hashtag": null,
      "rocket": {
        "id": 104,
        "configuration": {
          "id": 150,
          "launch_library_id": 189,
          "url": "https://spacelaunchnow.me/api/3.3.0/config/launcher/150/",
          "name": "SSLV",
          "launch_service_provider": "Indian Space Research Organization"
        },
        "launcher_stage": [],
        "spacecraft_stage": null
      },
      "mission": {
        "id": 683,
        "launch_library_id": 855,
        "name": "SSLV Demo 1",
        "description": "First test flight of Indian SSLV (Small Satellite Launch Vehicle).",
        "type": "Test Flight",
        "orbit": "Low Earth Orbit",
        "orbit_abbrev": "LEO"
      },
      "pad": {
        "id": 50,
        "agency_id": 31,
        "name": "Satish Dhawan Space Centre First Launch Pad",
        "info_url": null,
        "wiki_url": "https://en.wikipedia.org/wiki/Satish_Dhawan_Space_Centre_First_Launch_Pad",
        "map_url": "https://www.google.com/maps?q=13.733,80.235",
        "latitude": "13.733",
        "longitude": "80.235",
        "location": {
          "id": 14,
          "name": "Sriharikota, Republic of India",
          "country_code": "IND"
        }
      },
      "image_url": null,
      "infographic_url": null
    },
    {
      "id": "748ed2a0-e731-49e4-ac5f-468dc80d7d46",
      "url": "https://spacelaunchnow.me/api/3.3.0/launch/748ed2a0-e731-49e4-ac5f-468dc80d7d46/",
      "launch_library_id": 1325,
      "slug": "https://spacelaunchnow.me/launch/long-march-3b-nusantara-dua",
      "name": "Long March 3B | Nusantara Dua",
      "img_url": null,
      "status": {
        "id": 2,
        "name": "TBD"
      },
      "net": "2020-04-01T11:00:00+11:00",
      "window_end": "2020-04-01T11:00:00+11:00",
      "window_start": "2020-04-01T11:00:00+11:00",
      "inhold": false,
      "tbdtime": true,
      "tbddate": true,
      "probability": -1,
      "holdreason": null,
      "failreason": null,
      "hashtag": null,
      "rocket": {
        "id": 133,
        "configuration": {
          "id": 19,
          "launch_library_id": 22,
          "url": "https://spacelaunchnow.me/api/3.3.0/config/launcher/19/",
          "name": "Long March 3",
          "launch_service_provider": "China Aerospace Science and Technology Corporation"
        },
        "launcher_stage": [],
        "spacecraft_stage": null
      },
      "mission": null,
      "pad": {
        "id": 86,
        "agency_id": 17,
        "name": "Unknown",
        "info_url": null,
        "wiki_url": "https://en.wikipedia.org/wiki/Xichang_Satellite_Launch_Center",
        "map_url": "https://www.google.com/maps?ll=28.246017,102.026556&q=28.246017,102.026556&hl=en&t=m&z=15",
        "latitude": "28.246017",
        "longitude": "102.026556",
        "location": {
          "id": 16,
          "name": "Xichang Satellite Launch Center, People's Republic of China",
          "country_code": "CHN"
        }
      },
      "image_url": null,
      "infographic_url": null
    },
    {
      "id": "784e5c20-afa3-4849-9b4a-f2dd0e7b4b9e",
      "url": "https://spacelaunchnow.me/api/3.3.0/launch/784e5c20-afa3-4849-9b4a-f2dd0e7b4b9e/",
      "launch_library_id": 1878,
      "slug": "https://spacelaunchnow.me/launch/pslv-ca-risat-2br2",
      "name": "PSLV-CA | RISAT-2BR2",
      "img_url": null,
      "status": {
        "id": 2,
        "name": "TBD"
      },
      "net": "2020-04-01T11:00:00+11:00",
      "window_end": "2020-04-01T11:00:00+11:00",
      "window_start": "2020-04-01T11:00:00+11:00",
      "inhold": false,
      "tbdtime": true,
      "tbddate": true,
      "probability": -1,
      "holdreason": null,
      "failreason": null,
      "hashtag": null,
      "rocket": {
        "id": 2474,
        "configuration": {
          "id": 43,
          "launch_library_id": 68,
          "url": "https://spacelaunchnow.me/api/3.3.0/config/launcher/43/",
          "name": "PSLV",
          "launch_service_provider": "Indian Space Research Organization"
        },
        "launcher_stage": [],
        "spacecraft_stage": null
      },
      "mission": {
        "id": 998,
        "launch_library_id": 1206,
        "name": "RISAT-2BR2",
        "description": "Satellite imaging mission of ISRO using an active SAR (Synthetic Aperture Radar) imager to provide continuity of service for RISAT-2.",
        "type": "Earth Science",
        "orbit": null
      },
      "pad": {
        "id": 50,
        "agency_id": 31,
        "name": "Satish Dhawan Space Centre First Launch Pad",
        "info_url": null,
        "wiki_url": "https://en.wikipedia.org/wiki/Satish_Dhawan_Space_Centre_First_Launch_Pad",
        "map_url": "https://www.google.com/maps?q=13.733,80.235",
        "latitude": "13.733",
        "longitude": "80.235",
        "location": {
          "id": 14,
          "name": "Sriharikota, Republic of India",
          "country_code": "IND"
        }
      },
      "image_url": null,
      "infographic_url": null
    }
  ]
}