{
  "count": 207,
  "next": "https://spacelaunchnow.me/api/3.3.0/launch/upcoming/?limit=10&offset=10",
  "previous": null,
  "results": [
    {
      "id": "fbf1234b-50ab-4414-92f9-1b53dad65d05",
      "url": "https://spacelaunchnow.me/api/3.3.0/launch/fbf1234b-50ab-4414-92f9-1b53dad65d05/",
      "launch_library_id": 2034,
      "slug": "https://spacelaunchnow.me/launch/falcon-9-block-5-starlink-5",
      "name": "Falcon 9 Block 5 | Starlink 5",
      "img_url": null,
      "status": {
        "id": 1,
        "name": "Go"
      },
      "net": "2020-03-15T00:42:00+11:00",
      "window_end": "2020-03-15T00:42:00+11:00",
      "window_start": "2020-03-15T00:42:00+11:00",
      "inhold": false,
      "tbdtime": false,
      "tbddate": false,
      "probability": 90,
      "holdreason": null,
      "failreason": null,
      "hashtag": "",
      "rocket": {
        "id": 2621,
        "configuration": {
          "id": 164,
          "launch_library_id": 188,
          "url": "https://spacelaunchnow.me/api/3.3.0/config/launcher/164/",
          "name": "Falcon 9 Block 5",
          "launch_service_provider": "SpaceX"
        },
        "launcher_stage": [
          {
            "type": "Core",
            "reused": true,
            "launcher_flight_number": 5,
            "launcher": {
              "id": 56,
              "url": "https://spacelaunchnow.me/api/3.3.0/launcher/56/",
              "details": "Falcon 9 booster B1048 is a reusable orbital-class Block 5 Falcon 9 first-stage booster manufactured by SpaceX. B1048 was the third Falcon 9 block 5 to fly and the second block 5 booster to re-fly. It became the second orbital-class booster to fly a third time and the first to fly a fourth time.",
              "flight_proven": true,
              "serial_number": "B1048",
              "status": "active",
              "previous_flights": 4,
              "image_url": "https://spacelaunchnow-prod-east.nyc3.cdn.digitaloceanspaces.com/media/launcher_core_images/56_image_20191123114656.jpg"
            },
            "landing": {
              "attempt": true,
              "success": null,
              "description": "B1048 will attempt to land on ASDS OCISLY after its fifth launch.",
              "location": {
                "name": "Of Course I Still Love You",
                "abbrev": "OCISLY",
                "description": "The second ASDS barge, Of Course I Still Love You (OCISLY) services launches in the Atlantic Ocean and was the site of the first landing of a SpaceX Falcon 9 first stage during CRS-8, the launch of a Dragon spacecraft to the International Space Station."
              },
              "type": {
                "name": "Autonomous Spaceport Drone Ship",
                "abbrev": "ASDS",
                "description": "An autonomous spaceport drone ship (ASDS) is an ocean-going vessel derived from a deck barge, outfitted with station-keeping engines and a large landing platform. Construction of such ships was commissioned by aerospace company SpaceX to allow for recovery of rocket first-stages at sea for high-velocity missions which do not carry enough fuel to return to the launch site after lofting spacecraft onto an orbital trajectory."
              }
            }
          }
        ],
        "spacecraft_stage": null
      },
      "mission": {
        "id": 1092,
        "launch_library_id": 1290,
        "name": "Starlink 5",
        "description": "A batch of 60 satellites for Starlink mega-constellation - SpaceX's project for space-based Internet communication system.",
        "type": "Communications",
        "orbit": null
      },
      "pad": {
        "id": 87,
        "agency_id": null,
        "name": "Launch Complex 39A",
        "info_url": null,
        "wiki_url": "https://en.wikipedia.org/wiki/Kennedy_Space_Center_Launch_Complex_39#Launch_Pad_39A",
        "map_url": "http://maps.google.com/maps?q=28.608+N,+80.604+W",
        "latitude": "28.60822681",
        "longitude": "-80.60428186",
        "location": {
          "id": 27,
          "name": "Kennedy Space Center, FL, USA",
          "country_code": "USA"
        }
      },
      "image_url": null,
      "infographic_url": "https://spacelaunchnow-prod-east.nyc3.cdn.digitaloceanspaces.com/media/launch_images/falcon2520925_infographic_20200311222353.png"
    },
    {
      "id": "6cee0118-0a9a-4370-88f2-e931f624c811",
      "url": "https://spacelaunchnow.me/api/3.3.0/launch/6cee0118-0a9a-4370-88f2-e931f624c811/",
      "launch_library_id": 2049,
      "slug": "https://spacelaunchnow.me/launch/long-march-7a-maiden-flight",
      "name": "Long March 7A | Maiden Flight",
      "img_url": null,
      "status": {
        "id": 2,
        "name": "TBD"
      },
      "net": "2020-03-16T11:00:00+11:00",
      "window_end": "2020-03-16T11:00:00+11:00",
      "window_start": "2020-03-16T11:00:00+11:00",
      "inhold": false,
      "tbdtime": true,
      "tbddate": true,
      "probability": -1,
      "holdreason": null,
      "failreason": null,
      "hashtag": null,
      "rocket": {
        "id": 2694,
        "configuration": {
          "id": 216,
          "launch_library_id": 247,
          "url": "https://spacelaunchnow.me/api/3.3.0/config/launcher/216/",
          "name": "Long March 7A",
          "launch_service_provider": "China Aerospace Science and Technology Corporation"
        },
        "launcher_stage": [],
        "spacecraft_stage": null
      },
      "mission": {
        "id": 1101,
        "launch_library_id": 1298,
        "name": "Maiden Flight",
        "description": "This is the first flight of the Long March 7A which is a new configuration of the Long March 7 launch vehicle. The difference is that 7A variant includes an additional third stage,  allowing the rocket to perform GTO launches. This is also the first mission out of Wenchang cosmodrome in 2020.",
        "type": "Test Flight",
        "orbit": null
      },
      "pad": {
        "id": 78,
        "agency_id": null,
        "name": "Wenchang",
        "info_url": null,
        "wiki_url": "https://en.wikipedia.org/wiki/Wenchang_Satellite_Launch_Center",
        "map_url": "https://www.google.com/maps/place/19°36'52.2\"N+110°57'04.1\"E/",
        "latitude": "19.614354",
        "longitude": "110.951057",
        "location": {
          "id": 8,
          "name": "Wenchang Satellite Launch Center, People's Republic of China",
          "country_code": "CHN"
        }
      },
      "image_url": null,
      "infographic_url": null
    },
    {
      "id": "397c50c5-8a2b-4ca5-807d-8911c14b7126",
      "url": "https://spacelaunchnow.me/api/3.3.0/launch/397c50c5-8a2b-4ca5-807d-8911c14b7126/",
      "launch_library_id": 1131,
      "slug": "https://spacelaunchnow.me/launch/gslv-mk-ii-gisat-1",
      "name": "GSLV Mk II | GISAT-1",
      "img_url": null,
      "status": {
        "id": 1,
        "name": "Go"
      },
      "net": "2020-03-16T20:45:00+11:00",
      "window_end": "2020-03-17T00:45:00+11:00",
      "window_start": "2020-03-16T20:45:00+11:00",
      "inhold": false,
      "tbdtime": false,
      "tbddate": false,
      "probability": -1,
      "holdreason": null,
      "failreason": null,
      "hashtag": null,
      "rocket": {
        "id": 56,
        "configuration": {
          "id": 168,
          "launch_library_id": 60,
          "url": "https://spacelaunchnow.me/api/3.3.0/config/launcher/168/",
          "name": "GSLV Mk II",
          "launch_service_provider": "Indian Space Research Organization"
        },
        "launcher_stage": [],
        "spacecraft_stage": null
      },
      "mission": {
        "id": 750,
        "launch_library_id": 458,
        "name": "GISAT-1",
        "description": "GISAT-1 is an Indian earth observation satellite to be launched in geostationary orbit. It is tasked with continuous observation of Indian sub-continent and quick monitoring of natural hazards and disaster. GISAT carries an imaging payload consisting of of multi-spectral, multi-resolution from 50 m to 1.5 km. It will provide pictures of the area of interest on near real time basis including border areas.",
        "type": "Earth Science",
        "orbit": "Geostationary Transfer Orbit",
        "orbit_abbrev": "GTO"
      },
      "pad": {
        "id": 82,
        "agency_id": 31,
        "name": "Satish Dhawan Space Centre Second Launch Pad",
        "info_url": null,
        "wiki_url": "https://en.wikipedia.org/wiki/Satish_Dhawan_Space_Centre_Second_Launch_Pad",
        "map_url": "https://www.google.com/maps?q=13.7199,80.2304",
        "latitude": "13.7199",
        "longitude": "80.2304",
        "location": {
          "id": 14,
          "name": "Sriharikota, Republic of India",
          "country_code": "IND"
        }
      },
      "image_url": null,
      "infographic_url": "https://spacelaunchnow-prod-east.nyc3.cdn.digitaloceanspaces.com/media/launch_images/gslv2520mk252_infographic_20200229190506.png"
    }
  ]
}